{
	"user": [{
			"uid": "47208634",
			"id": 47208634,
			"name_title": "",
			"name_title_show": 0,
			"name_first": "Robert",
			"name_first_preferred": "",
			"use_preferred_first_name": "1",
			"name_middle": "",
			"name_middle_show": 0,
			"name_last": "Abbott",
			"picture_url": "https:\/\/asset-cdn.schoology.com\/system\/files\/imagecache\/profile_reg\/sites\/all\/themes\/schoology_theme\/images\/user-default.gif",
			"gender": null,
			"position": null,
			"child_uids": null,
			"links": {
				"self": "https:\/\/api.schoology.com\/v1\/users\/47208634"
			}
		}, {
			"uid": "6369177",
			"id": 6369177,
			"name_title": "",
			"name_title_show": 0,
			"name_first": "Jason",
			"name_first_preferred": "",
			"use_preferred_first_name": "1",
			"name_middle": "",
			"name_middle_show": 0,
			"name_last": "Adams",
			"picture_url": "https:\/\/asset-cdn.schoology.com\/system\/files\/imagecache\/profile_reg\/sites\/all\/themes\/schoology_theme\/images\/user-default.gif",
			"gender": null,
			"position": null,
			"child_uids": null,
			"links": {
				"self": "https:\/\/api.schoology.com\/v1\/users\/6369177"
			}
		}, {
			"uid": "22393038",
			"id": 22393038,
			"name_title": "",
			"name_title_show": 0,
			"name_first": "Michael",
			"name_first_preferred": "",
			"use_preferred_first_name": "1",
			"name_middle": "",
			"name_middle_show": 0,
			"name_last": "Agee",
			"picture_url": "https:\/\/asset-cdn.schoology.com\/system\/files\/imagecache\/profile_reg\/sites\/all\/themes\/schoology_theme\/images\/user-default.gif",
			"gender": null,
			"position": null,
			"child_uids": null,
			"links": {
				"self": "https:\/\/api.schoology.com\/v1\/users\/22393038"
			}
		}, {
			"uid": "16310404",
			"id": 16310404,
			"name_title": "",
			"name_title_show": 0,
			"name_first": "Melissa",
			"name_first_preferred": "",
			"use_preferred_first_name": "1",
			"name_middle": "",
			"name_middle_show": 0,
			"name_last": "Anderson",
			"picture_url": "https:\/\/cdn3-6.cdn.schoology.com\/system\/files\/imagecache\/profile_reg\/sites\/all\/themes\/schoology_theme\/images\/user-default.gif",
			"gender": null,
			"position": null,
			"child_uids": null,
			"links": {
				"self": "https:\/\/api.schoology.com\/v1\/users\/16310404"
			}
		}, {
			"uid": "6369615",
			"id": 6369615,
			"name_title": "",
			"name_title_show": 0,
			"name_first": "Taudine",
			"name_first_preferred": "",
			"use_preferred_first_name": "1",
			"name_middle": "",
			"name_middle_show": 0,
			"name_last": "Andrew",
			"picture_url": "https:\/\/cdn3-8.cdn.schoology.com\/system\/files\/imagecache\/profile_reg\/pictures\/picture-d9f9aa4217d28ce01f6436ae84f680d8_531c12fa2ae73.jpg?1383348593",
			"gender": "F",
			"position": "Teacher, Department Chair, FCCLA Adviser",
			"child_uids": null,
			"links": {
				"self": "https:\/\/api.schoology.com\/v1\/users\/6369615"
			}
		}, {
			"uid": "5540193",
			"id": 5540193,
			"name_title": "",
			"name_title_show": 0,
			"name_first": "Stephanie",
			"name_first_preferred": "",
			"use_preferred_first_name": "1",
			"name_middle": "",
			"name_middle_show": 0,
			"name_last": "Arino",
			"picture_url": "https:\/\/asset-cdn.schoology.com\/system\/files\/imagecache\/profile_reg\/pictures\/picture-95dcb4eb39efb1af25a55e51cb43cf23_531be395220db.jpg?1383317883",
			"gender": "F",
			"position": "Teacher",
			"child_uids": null,
			"links": {
				"self": "https:\/\/api.schoology.com\/v1\/users\/5540193"
			}
		}, {
			"uid": "6369181",
			"id": 6369181,
			"name_title": "Mrs.",
			"name_title_show": 0,
			"name_first": "Stephanie",
			"name_first_preferred": "",
			"use_preferred_first_name": "1",
			"name_middle": "",
			"name_middle_show": 0,
			"name_last": "Arino",
			"picture_url": "https:\/\/asset-cdn.schoology.com\/system\/files\/imagecache\/profile_reg\/pictures\/picture-c3916c71dd3f3da24bc7449658b40934_531c12e8c7c4b.jpg?1383317883",
			"gender": "F",
			"position": "teacher",
			"child_uids": null,
			"links": {
				"self": "https:\/\/api.schoology.com\/v1\/users\/6369181"
			}
		}, {
			"uid": "49086546",
			"id": 49086546,
			"name_title": "",
			"name_title_show": 0,
			"name_first": "Jean",
			"name_first_preferred": "",
			"use_preferred_first_name": "1",
			"name_middle": "",
			"name_middle_show": 0,
			"name_last": "Ascoli",
			"picture_url": "https:\/\/asset-cdn.schoology.com\/system\/files\/imagecache\/profile_reg\/sites\/all\/themes\/schoology_theme\/images\/user-default.gif",
			"gender": null,
			"position": null,
			"child_uids": null,
			"links": {
				"self": "https:\/\/api.schoology.com\/v1\/users\/49086546"
			}
		}, {
			"uid": "77593964",
			"id": 77593964,
			"name_title": "",
			"name_title_show": 0,
			"name_first": "Cali",
			"name_first_preferred": "",
			"use_preferred_first_name": "1",
			"name_middle": "",
			"name_middle_show": 0,
			"name_last": "Astin",
			"picture_url": "https:\/\/asset-cdn.schoology.com\/system\/files\/imagecache\/profile_reg\/pictures\/picture-da3d9ce43a510c49cab8ce7383f256c3_5bace9e2e30c6.JPEG?1538058741",
			"gender": null,
			"position": null,
			"child_uids": null,
			"links": {
				"self": "https:\/\/api.schoology.com\/v1\/users\/77593964"
			}
		}, {
			"uid": "7288671",
			"id": 7288671,
			"name_title": "",
			"name_title_show": 0,
			"name_first": "Kathy",
			"name_first_preferred": "",
			"use_preferred_first_name": "1",
			"name_middle": "",
			"name_middle_show": 0,
			"name_last": "Baehre",
			"picture_url": "https:\/\/asset-cdn.schoology.com\/system\/files\/imagecache\/profile_reg\/pictures\/picture-86094e23a34979a5d3a6747ee2a67a99_5b16decedd1c4.png?1528225487",
			"gender": null,
			"position": null,
			"child_uids": null,
			"links": {
				"self": "https:\/\/api.schoology.com\/v1\/users\/7288671"
			}
		}, {
			"uid": "24453429",
			"id": 24453429,
			"name_title": "",
			"name_title_show": 0,
			"name_first": "Tamura",
			"name_first_preferred": "",
			"use_preferred_first_name": "1",
			"name_middle": "",
			"name_middle_show": 0,
			"name_last": "Barnes",
			"picture_url": "https:\/\/cdn3-6.cdn.schoology.com\/system\/files\/imagecache\/profile_reg\/sites\/all\/themes\/schoology_theme\/images\/user-default.gif",
			"gender": null,
			"position": null,
			"child_uids": null,
			"links": {
				"self": "https:\/\/api.schoology.com\/v1\/users\/24453429"
			}
		}, {
			"uid": "6369187",
			"id": 6369187,
			"name_title": "",
			"name_title_show": 0,
			"name_first": "Rebecca",
			"name_first_preferred": "",
			"use_preferred_first_name": "1",
			"name_middle": "",
			"name_middle_show": 0,
			"name_last": "Batzianis",
			"picture_url": "https:\/\/asset-cdn.schoology.com\/system\/files\/imagecache\/profile_reg\/sites\/all\/themes\/schoology_theme\/images\/user-default.gif",
			"gender": null,
			"position": null,
			"child_uids": null,
			"links": {
				"self": "https:\/\/api.schoology.com\/v1\/users\/6369187"
			}
		}, {
			"uid": "6369193",
			"id": 6369193,
			"name_title": "",
			"name_title_show": 0,
			"name_first": "Greg",
			"name_first_preferred": "",
			"use_preferred_first_name": "1",
			"name_middle": "",
			"name_middle_show": 0,
			"name_last": "Benzel",
			"picture_url": "https:\/\/asset-cdn.schoology.com\/system\/files\/imagecache\/profile_reg\/sites\/all\/themes\/schoology_theme\/images\/user-default.gif",
			"gender": null,
			"position": null,
			"child_uids": null,
			"links": {
				"self": "https:\/\/api.schoology.com\/v1\/users\/6369193"
			}
		}, {
			"uid": "6369195",
			"id": 6369195,
			"name_title": "",
			"name_title_show": 0,
			"name_first": "Julianne",
			"name_first_preferred": "",
			"use_preferred_first_name": "1",
			"name_middle": "",
			"name_middle_show": 0,
			"name_last": "Benzel",
			"picture_url": "https:\/\/cdn3-2.cdn.schoology.com\/system\/files\/imagecache\/profile_reg\/pictures\/picture-46de1bb4729d7c98c9c2bc450a758ba1_531c12e92287e.jpg?1383348578",
			"gender": null,
			"position": null,
			"child_uids": null,
			"links": {
				"self": "https:\/\/api.schoology.com\/v1\/users\/6369195"
			}
		}, {
			"uid": "31468467",
			"id": 31468467,
			"name_title": "",
			"name_title_show": 0,
			"name_first": "Scott",
			"name_first_preferred": "",
			"use_preferred_first_name": "1",
			"name_middle": "",
			"name_middle_show": 0,
			"name_last": "Bergemann",
			"picture_url": "https:\/\/cdn3-1.cdn.schoology.com\/system\/files\/imagecache\/profile_reg\/pictures\/picture-ef8501cfd49ed5e57277a2c6ec3568f2_57b4b5ce66aac.JPG?1471460814",
			"gender": null,
			"position": null,
			"child_uids": null,
			"links": {
				"self": "https:\/\/api.schoology.com\/v1\/users\/31468467"
			}
		}, {
			"uid": "74706638",
			"id": 74706638,
			"name_title": "",
			"name_title_show": 0,
			"name_first": "Chelsea",
			"name_first_preferred": "",
			"use_preferred_first_name": "1",
			"name_middle": "",
			"name_middle_show": 0,
			"name_last": "Black",
			"picture_url": "https:\/\/asset-cdn.schoology.com\/system\/files\/imagecache\/profile_reg\/sites\/all\/themes\/schoology_theme\/images\/user-default.gif",
			"gender": null,
			"position": null,
			"child_uids": null,
			"links": {
				"self": "https:\/\/api.schoology.com\/v1\/users\/74706638"
			}
		}, {
			"uid": "28548773",
			"id": 28548773,
			"name_title": "",
			"name_title_show": 0,
			"name_first": "Rosa",
			"name_first_preferred": "",
			"use_preferred_first_name": "1",
			"name_middle": "",
			"name_middle_show": 0,
			"name_last": "Blancarte Nettle",
			"picture_url": "https:\/\/cdn3-6.cdn.schoology.com\/system\/files\/imagecache\/profile_reg\/pictures\/picture-2bfa6cbb66f99b160ee1c48d9c886724_56cb6ccfd8281.png?1456172240",
			"gender": null,
			"position": null,
			"child_uids": null,
			"links": {
				"self": "https:\/\/api.schoology.com\/v1\/users\/28548773"
			}
		}, {
			"uid": "6683191",
			"id": 6683191,
			"name_title": "",
			"name_title_show": 0,
			"name_first": "Sarah",
			"name_first_preferred": "",
			"use_preferred_first_name": "1",
			"name_middle": "",
			"name_middle_show": 0,
			"name_last": "Blankenship",
			"picture_url": "https:\/\/cdn3-1.cdn.schoology.com\/system\/files\/imagecache\/profile_reg\/pictures\/picture-3d1f93c9b3fbcf825c96c5029f2f7a3d_5b77994e5b9b2.jpg?1534564704",
			"gender": null,
			"position": null,
			"child_uids": null,
			"links": {
				"self": "https:\/\/api.schoology.com\/v1\/users\/6683191"
			}
		}, {
			"uid": "6683193",
			"id": 6683193,
			"name_title": "",
			"name_title_show": 0,
			"name_first": "David",
			"name_first_preferred": "",
			"use_preferred_first_name": "1",
			"name_middle": "",
			"name_middle_show": 0,
			"name_last": "Bressler",
			"picture_url": "https:\/\/cdn3-6.cdn.schoology.com\/system\/files\/imagecache\/profile_reg\/sites\/all\/themes\/schoology_theme\/images\/user-default.gif",
			"gender": null,
			"position": null,
			"child_uids": null,
			"links": {
				"self": "https:\/\/api.schoology.com\/v1\/users\/6683193"
			}
		}, {
			"uid": "20038940",
			"id": 20038940,
			"name_title": "",
			"name_title_show": 0,
			"name_first": "Lyndsey",
			"name_first_preferred": "",
			"use_preferred_first_name": "1",
			"name_middle": "",
			"name_middle_show": 0,
			"name_last": "Brown",
			"picture_url": "https:\/\/asset-cdn.schoology.com\/system\/files\/imagecache\/profile_reg\/pictures\/picture-b5ab9bb3e9180fc57b9c421fa5b46b45_5a542293d23e3.jpg?1515463315",
			"gender": null,
			"position": null,
			"child_uids": null,
			"links": {
				"self": "https:\/\/api.schoology.com\/v1\/users\/20038940"
			}
		}
	],
	"total": "196",
	"links": {
		"self": "https:\/\/api.schoology.com\/v1\/users?start=0&limit=20",
		"next": "https:\/\/api.schoology.com\/v1\/users?start=20&limit=20"
	}
}
